Ethnic Power Relations Data and Associated Analytical Routines • epr
…
{epr} provides Ethnic Power Relations data and associated analytical routines.

Installation

if (!requireNamespace("remotes", quietly = TRUE)) install.packages("remotes")
remotes::install_github("knapply/epr")

Usage

library(epr)

epr_df

#> # A tibble: 4,255 x 11
#>     gwid statename      from    to group             groupid gwgroupid umbrella   size status        reg_aut
#>    <int> <chr>         <int> <int> <chr>               <int>     <int>    <int>  <dbl> <chr>         <lgl>  
#>  1     2 United States  1946  1965 Whites               1000    201000       NA 0.691  MONOPOLY      NA     
#>  2     2 United States  1946  1965 Latinos              2000    202000       NA 0.125  IRRELEVANT    NA     
#>  3     2 United States  1946  1965 African Americans    3000    203000       NA 0.124  DISCRIMINATED FALSE  
#>  4     2 United States  1946  1965 Asian Americans      4000    204000       NA 0.036  IRRELEVANT    NA     
#>  5     2 United States  1946  1965 American Indians     5000    205000       NA 0.0078 POWERLESS     TRUE   
#>  6     2 United States  1946  1965 Arab Americans       6000    206000       NA 0.0042 IRRELEVANT    NA     
#>  7     2 United States  1966  2008 Whites               1000    201000       NA 0.691  DOMINANT      NA     
#>  8     2 United States  1966  2008 Latinos              2000    202000       NA 0.125  POWERLESS     FALSE  
#>  9     2 United States  1966  2008 African Americans    3000    203000       NA 0.124  POWERLESS     FALSE  
#> 10     2 United States  1966  2008 Asian Americans      4000    204000       NA 0.036  POWERLESS     FALSE  
#> # … with 4,245 more rows
…
library(dplyr)

epr_df %>%
  left_join(epr_status_codes_df)

#> # A tibble: 4,255 x 13
#>     gwid statename    from    to group     groupid gwgroupid umbrella   size status   reg_aut category definition                                     
#>    <int> <chr>       <int> <int> <chr>       <int>     <int>    <int>  <dbl> <chr>    <lgl>   <chr>    <chr>                                          
#>  1     2 United Sta…  1946  1965 Whites       1000    201000       NA 0.691  MONOPOLY NA      rules_a… Elite members hold monopoly power in the execu…
#>  2     2 United Sta…  1946  1965 Latinos      2000    202000       NA 0.125  IRRELEV… NA      <NA>     <NA>                                           
#>  3     2 United Sta…  1946  1965 African …    3000    203000       NA 0.124  DISCRIM… FALSE   is_excl… Group members are subjected to active, intenti…
#>  4     2 United Sta…  1946  1965 Asian Am…    4000    204000       NA 0.036  IRRELEV… NA      <NA>     <NA>                                           
#>  5     2 United Sta…  1946  1965 American…    5000    205000       NA 0.0078 POWERLE… TRUE    is_excl… Elite representatives hold no political power …
#>  6     2 United Sta…  1946  1965 Arab Ame…    6000    206000       NA 0.0042 IRRELEV… NA      <NA>     <NA>                                           
#>  7     2 United Sta…  1966  2008 Whites       1000    201000       NA 0.691  DOMINANT NA      <NA>     <NA>                                           
#>  8     2 United Sta…  1966  2008 Latinos      2000    202000       NA 0.125  POWERLE… FALSE   is_excl… Elite representatives hold no political power …
#>  9     2 United Sta…  1966  2008 African …    3000    203000       NA 0.124  POWERLE… FALSE   is_excl… Elite representatives hold no political power …
#> 10     2 United Sta…  1966  2008 Asian Am…    4000    204000       NA 0.036  POWERLE… FALSE   is_excl… Elite representatives hold no political power …
#> # … with 4,245 more rows
…
