EPR - Ethnic Power Relations — epr_df • epr
…
Data (CSV)

Codebook

    References

Vogt, Manuel, Nils-Christian Bormann, Seraina Rüegger, Lars-Erik Cederman, Philipp Hunziker, and Luc Girardin. 2015. “Integrating Data on Ethnicity, Geography, and Conflict: The Ethnic Power Relations Data Set Family.” Journal of Conflict Resolution 59(7): 1327–42.

Cederman, Lars-Erik, Andreas Wimmer, and Brian Min. 2010. “Why Do Ethnic Groups Rebel? New Data and Analysis.” World Politics 62(1): 87–119.

    Examples

epr_df
#> # A tibble: 4,255 x 11
#>     gwid statename  from    to group groupid gwgroupid umbrella   size status
#>    <int> <chr>     <int> <int> <chr>   <int>     <int>    <int>  <dbl> <chr> 
#>  1     2 United S…  1946  1965 Whit…    1000    201000       NA 0.691  MONOP…
#>  2     2 United S…  1946  1965 Lati…    2000    202000       NA 0.125  IRREL…
#>  3     2 United S…  1946  1965 Afri…    3000    203000       NA 0.124  DISCR…
#>  4     2 United S…  1946  1965 Asia…    4000    204000       NA 0.036  IRREL…
#>  5     2 United S…  1946  1965 Amer…    5000    205000       NA 0.0078 POWER…
#>  6     2 United S…  1946  1965 Arab…    6000    206000       NA 0.0042 IRREL…
#>  7     2 United S…  1966  2008 Whit…    1000    201000       NA 0.691  DOMIN…
#>  8     2 United S…  1966  2008 Lati…    2000    202000       NA 0.125  POWER…
#>  9     2 United S…  1966  2008 Afri…    3000    203000       NA 0.124  POWER…
#> 10     2 United S…  1966  2008 Asia…    4000    204000       NA 0.036  POWER…
#> # … with 4,245 more rows, and 1 more variable: reg_aut <lgl>
…
